^D:\WORKS\SDL\X64\DEBUG\SDL_LEXER.OBJ|D:\WORKS\SDL\X64\DEBUG\SDL_MAIN.OBJ|D:\WORKS\SDL\X64\DEBUG\SDL_PARSER.OBJ|D:\WORKS\SDL\X64\DEBUG\SDL_PARSER_RTNS.OBJ|D:\WORKS\SDL\X64\DEBUG\UTILITY_ROUTINES.OBJ
D:\WORKS\SDL\X64\DEBUG\SDL.EXE
D:\WORKS\SDL\X64\DEBUG\SDL.PDB
